TriggerSummaryStep1                     1   0     DEBUG  +++ HLT_j45 ID#3664574289
TriggerSummaryStep1                     3   0     DEBUG  +++ HLT_j45 ID#3664574289
TriggerSummaryStep1                     10  0     DEBUG  +++ HLT_j45 ID#3664574289
TriggerSummaryStep1                     19  0     DEBUG  +++ HLT_j45 ID#3664574289
TrigSignatureMoniMT                                INFO HLT_j45                       20        20        4         4         
TrigSignatureMoniMT                                INFO HLT_j45 decisions                                 4         
TrigSignatureMoniMT                                INFO HLT_j85                       20        20        0         0         
TrigSignatureMoniMT                                INFO HLT_j85 decisions                                 0         
